<?xml version="1.0" encoding="iso-8859-1"?>
<!-- Generator: Adobe Illustrator 19.0.0, SVG Export Plug-In . SVG Version: 6.00 Build 0)  -->
<svg version="1.1" id="Layer_1" xmlns="http://www.w3.org/2000/svg" xmlns:xlink="http://www.w3.org/1999/xlink" x="0px" y="0px"
	 viewBox="0 0 512.001 512.001" style="enable-background:new 0 0 512.001 512.001;" xml:space="preserve">
<g>
	<g>
		<path d="M256.001,73.584c-43.293,0-78.515,35.221-78.515,78.514c0,43.292,35.221,78.514,78.515,78.514
			c43.292,0,78.514-35.221,78.514-78.514S299.293,73.584,256.001,73.584z M256.001,214.482c-34.4,0-62.386-27.986-62.386-62.385
			s27.987-62.385,62.386-62.385s62.385,27.986,62.385,62.385S290.401,214.482,256.001,214.482z"/>
	</g>
</g>
<g>
	<g>
		<path d="M256.001,0c-4.455,0-8.064,3.611-8.064,8.064v44.402c0,4.455,3.61,8.064,8.064,8.064c4.455,0,8.064-3.611,8.064-8.064
			V8.064C264.065,3.611,260.455,0,256.001,0z"/>
	</g>
</g>
<g>
	<g>
		<path d="M256.001,243.663c-4.455,0-8.064,3.611-8.064,8.064v44.402c0,4.454,3.61,8.064,8.064,8.064
			c4.455,0,8.064-3.611,8.064-8.064v-44.402C264.065,247.274,260.454,243.663,256.001,243.663z"/>
	</g>
</g>
<g>
	<g>
		<path d="M363.549,44.549c-3.15-3.149-8.256-3.149-11.405,0l-31.397,31.397c-3.149,3.149-3.149,8.255,0,11.404
			c1.575,1.574,3.639,2.362,5.702,2.362c2.063,0,4.128-0.787,5.703-2.362l31.397-31.397
			C366.698,52.804,366.698,47.698,363.549,44.549z"/>
	</g>
</g>
<g>
	<g>
		<path d="M191.254,216.844c-3.152-3.149-8.257-3.149-11.406,0l-31.397,31.397c-3.149,3.149-3.149,8.255,0,11.404
			c1.575,1.575,3.64,2.362,5.703,2.362c2.063,0,4.128-0.787,5.703-2.362l31.397-31.397
			C194.404,225.098,194.404,219.993,191.254,216.844z"/>
	</g>
</g>
<g>
	<g>
		<path d="M400.033,144.033h-44.402c-4.455,0-8.064,3.611-8.064,8.064s3.61,8.064,8.064,8.064h44.402
			c4.455,0,8.064-3.611,8.064-8.064S404.487,144.033,400.033,144.033z"/>
	</g>
</g>
<g>
	<g>
		<path d="M156.37,144.033h-44.403c-4.455,0-8.064,3.611-8.064,8.064s3.61,8.064,8.064,8.064h44.403
			c4.455,0,8.064-3.611,8.064-8.064S160.825,144.033,156.37,144.033z"/>
	</g>
</g>
<g>
	<g>
		<path d="M191.254,75.946l-31.397-31.397c-3.15-3.149-8.256-3.149-11.405,0s-3.149,8.255,0,11.404l31.396,31.397
			c1.575,1.575,3.64,2.362,5.703,2.362c2.063,0,4.128-0.787,5.703-2.362C194.404,84.201,194.404,79.095,191.254,75.946z"/>
	</g>
</g>
<g>
	<g>
		<path d="M363.55,248.241l-31.397-31.397c-3.151-3.149-8.257-3.149-11.406,0c-3.149,3.149-3.149,8.255,0,11.404l31.397,31.397
			c1.575,1.575,3.64,2.362,5.703,2.362s4.128-0.787,5.703-2.362C366.699,256.495,366.699,251.39,363.55,248.241z"/>
	</g>
</g>
<g>
	<g>
		<path d="M230.29,350.65c-0.558-0.616-1.128-1.222-1.71-1.817l-69.725-71.42c-4.653-4.765-10.913-7.33-17.542-7.28
			c-6.66,0.071-12.835,2.789-17.385,7.655c-8.523,9.112-8.633,23.489-0.25,32.73l41.983,46.29c1.291,1.425,1.914,3.264,1.753,5.18
			c-0.161,1.916-1.084,3.626-2.595,4.814c-2.797,2.197-6.873,1.869-9.281-0.752l-48.58-52.85c-3.069-3.34-4.936-7.671-5.256-12.196
			l-1.509-21.367l15.978-18.443c6.294-7.266,8.473-17.122,5.825-26.365c-2.648-9.243-9.715-16.45-18.904-19.28L94.815,213
			c-3.393-11.293-13.89-19.437-26.11-19.437c-0.069,0-0.141,0-0.211,0.001c-7.305,0.056-14.146,2.959-19.261,8.176
			c-5.116,5.216-7.885,12.112-7.797,19.418l1.316,110.103c0.156,13.003,4.992,25.522,13.619,35.249l73.768,83.183
			c2.481,2.797,3.832,6.396,3.81,10.134l-0.273,44.058c-0.027,4.454,3.561,8.087,8.014,8.114c0.018,0,0.034,0,0.052,0
			c4.43,0,8.036-3.577,8.063-8.015l0.273-44.058c0.048-7.722-2.747-15.156-7.871-20.935l-73.769-83.182
			c-6.056-6.829-9.45-15.615-9.56-24.741l-1.316-110.103c-0.034-2.984,1.097-5.801,3.186-7.932c2.089-2.131,4.884-3.317,7.869-3.34
			c0.028,0,0.057,0,0.086,0c5.827,0,10.7,4.532,11.11,10.355l5.797,82.093c0.575,8.154,3.939,15.958,9.471,21.975l48.58,52.85
			c8.072,8.779,21.739,9.887,31.118,2.519c4.995-3.926,8.169-9.809,8.702-16.14c0.534-6.332-1.607-12.663-5.876-17.37
			l-41.983-46.291c-2.786-3.072-2.75-7.849,0.083-10.877c1.512-1.617,3.563-2.52,5.778-2.544c2.214-0.029,4.284,0.837,5.831,2.419
			l69.725,71.421c0.447,0.458,0.885,0.923,1.316,1.397c10.247,11.268,14.663,27.32,11.81,42.937l-15.043,82.387
			c-0.8,4.382,2.103,8.581,6.485,9.381c4.377,0.801,8.58-2.103,9.381-6.485l15.043-82.387
			C249.782,386.803,243.896,365.612,230.29,350.65z M96.72,230.463l1.623,0.5c4.019,1.238,6.989,4.267,8.147,8.308
			s0.244,8.182-2.511,11.361l-5.396,6.228L96.72,230.463z"/>
	</g>
</g>
<g>
	<g>
		<path d="M462.766,201.74c-5.115-5.216-11.954-8.119-19.26-8.175c-0.071,0-0.141-0.001-0.211-0.001
			c-12.22,0-22.716,8.144-26.11,19.437l-8.275,2.548c-9.188,2.83-16.254,10.037-18.903,19.279
			c-2.648,9.242-0.471,19.098,5.823,26.365l15.979,18.445l-1.509,21.366c-0.319,4.525-2.186,8.856-5.257,12.196l-48.581,52.85
			c-2.407,2.619-6.484,2.946-9.279,0.751c-1.512-1.188-2.434-2.898-2.595-4.814c-0.161-1.916,0.461-3.756,1.753-5.179l41.983-46.291
			c8.381-9.242,8.27-23.619-0.252-32.729c-4.549-4.864-10.724-7.583-17.384-7.655c-6.641-0.044-12.891,2.515-17.542,7.28
			l-69.725,71.419c-0.58,0.594-1.147,1.198-1.71,1.814c-13.607,14.964-19.493,36.155-15.744,56.685l15.042,82.387
			c0.8,4.382,5.005,7.285,9.381,6.485c4.382-0.8,7.285-5,6.485-9.381l-15.043-82.387c-2.852-15.618,1.562-31.669,11.805-42.933
			c0.431-0.474,0.872-0.941,1.321-1.401l69.726-71.42c1.545-1.584,3.656-2.444,5.83-2.419c2.214,0.024,4.266,0.927,5.777,2.544
			c2.833,3.028,2.87,7.806,0.084,10.877l-41.983,46.291c-4.269,4.707-6.412,11.038-5.877,17.37
			c0.533,6.332,3.705,12.216,8.704,16.141c9.38,7.37,23.048,6.261,31.116-2.519l48.58-52.85c5.532-6.018,8.895-13.822,9.472-21.975
			l5.797-82.094c0.413-5.85,5.298-10.416,11.196-10.353c2.984,0.023,5.778,1.209,7.867,3.34s3.221,4.948,3.186,7.933l-1.315,110.103
			c-0.11,9.127-3.505,17.913-9.561,24.741l-73.768,83.185c-5.125,5.778-7.919,13.214-7.871,20.935l0.274,44.058
			c0.027,4.436,3.633,8.014,8.063,8.014c0.017,0,0.034,0,0.052,0c4.454-0.028,8.042-3.66,8.014-8.114l-0.274-44.059
			c-0.023-3.737,1.329-7.336,3.81-10.133l73.768-83.183c8.628-9.728,13.464-22.247,13.62-35.25l1.315-110.103
			C470.651,213.852,467.882,206.956,462.766,201.74z M413.418,256.862l-5.397-6.229c-2.754-3.178-3.668-7.319-2.51-11.362
			c1.158-4.042,4.128-7.071,8.146-8.308l1.624-0.5L413.418,256.862z"/>
	</g>
</g>
<g>
</g>
<g>
</g>
<g>
</g>
<g>
</g>
<g>
</g>
<g>
</g>
<g>
</g>
<g>
</g>
<g>
</g>
<g>
</g>
<g>
</g>
<g>
</g>
<g>
</g>
<g>
</g>
<g>
</g>
</svg>
